[
  {
    "request": {
      "body": "",
      "headers": {
        "Accept": "application/vnd.skroutz+json; version=3",
        "Authorization": "Bearer ACCESS_TOKEN"
      },
      "method": "get",
      "options": [],
      "request_body": "",
      "url": "https://api.skroutz.gr/categories?"
    },
    "response": {
      "body": "{\"categories\":[{\"id\":1,\"name\":\"Σταθερή Τηλεφωνία\",\"children_count\":5,\"image_url\":\"http://d.scdn.gr/images/categories/large/20150508125916_c7ffab14.jpg\",\"parent_id\":2,\"fashion\":false,\"layout_mode\":\"list\",\"web_uri\":\"https://skroutz.gr/c/1/statherh-tilefwnia.html\",\"path\":\"76,1269,2,1\",\"show_specifications\":false,\"manufacturer_title\":\"Κατασκευαστές\"},{\"id\":2,\"name\":\"Τηλεφωνία\",\"children_count\":2,\"image_url\":\"http://a.scdn.gr/images/categories/large/20151204131758_3e2f9f76.jpg\",\"parent_id\":1269,\"fashion\":false,\"layout_mode\":\"list\",\"web_uri\":\"https://skroutz.gr/c/2/tilefwnia.html\",\"path\":\"76,1269,2\",\"show_specifications\":false,\"manufacturer_title\":\"Κατασκευαστές\"},{\"id\":5,\"name\":\"Φωτογραφία \\u0026 Video\",\"children_count\":3,\"image_url\":\"http://a.scdn.gr/images/categories/large/20150511220245_0c27a42c.jpg\",\"parent_id\":1269,\"fashion\":false,\"layout_mode\":\"list\",\"web_uri\":\"https://skroutz.gr/c/5/photografia-video.html\",\"path\":\"76,1269,5\",\"show_specifications\":false,\"manufacturer_title\":\"Κατασκευαστές\"},{\"id\":6,\"name\":\"Διάφορα Εικόνας\",\"children_count\":2,\"image_url\":\"http://c.scdn.gr/images/categories/large/20150127155831_5_VL88_withWave.jpg\",\"parent_id\":309,\"fashion\":false,\"layout_mode\":\"list\",\"web_uri\":\"https://skroutz.gr/c/6/diafora_eikonas.html\",\"path\":\"76,1269,309,6\",\"show_specifications\":false,\"manufacturer_title\":\"Κατασκευαστές\"},{\"id\":10,\"name\":\"Projectors\",\"children_count\":0,\"image_url\":\"http://d.scdn.gr/images/categories/large/20150118013550_benq_sp920p.jpg\",\"parent_id\":79,\"fashion\":false,\"layout_mode\":\"list\",\"web_uri\":\"https://skroutz.gr/c/10/protzektores.html\",\"path\":\"76,1269,309,79,10\",\"show_specifications\":true,\"manufacturer_title\":\"Κατασκευαστές\"},{\"id\":11,\"name\":\"Σπίτι - Κήπος\",\"children_count\":13,\"image_url\":\"http://d.scdn.gr/images/categories/large/11.jpg\",\"parent_id\":76,\"fashion\":false,\"layout_mode\":\"list\",\"web_uri\":\"https://skroutz.gr/c/11/home-garden.html\",\"path\":\"76,11\",\"show_specifications\":false,\"manufacturer_title\":\"Κατασκευαστές\"},{\"id\":12,\"name\":\"Τηλεοράσεις\",\"children_count\":0,\"image_url\":\"http://c.scdn.gr/images/categories/large/20150127161317_lg_tv_a_l.jpg\",\"parent_id\":1800,\"fashion\":false,\"layout_mode\":\"list\",\"web_uri\":\"https://skroutz.gr/c/12/television.html\",\"path\":\"76,1269,309,1800,12\",\"show_specifications\":true,\"manufacturer_title\":\"Κατασκευαστές\"},{\"id\":14,\"name\":\"Διάφορα Υπολογιστών\",\"children_count\":5,\"image_url\":\"http://b.scdn.gr/images/categories/large/20151113092102_a8cafc09.jpg\",\"parent_id\":22,\"fashion\":false,\"layout_mode\":\"list\",\"web_uri\":\"https://skroutz.gr/c/14/diafora-ypologistwn.html\",\"path\":\"76,1269,22,14\",\"show_specifications\":false,\"manufacturer_title\":\"Κατασκευαστές\"},{\"id\":16,\"name\":\"Λογισμικό\",\"children_count\":8,\"image_url\":\"http://d.scdn.gr/images/categories/large/16.jpg\",\"parent_id\":22,\"fashion\":false,\"layout_mode\":\"list\",\"web_uri\":\"https://skroutz.gr/c/16/software.html\",\"path\":\"76,1269,22,16\",\"show_specifications\":false,\"manufacturer_title\":\"Κατασκευαστές\"},{\"id\":17,\"name\":\"Κάρτες Τηλεόρασης και Video\",\"children_count\":0,\"image_url\":\"http://d.scdn.gr/images/categories/large/17.jpg\",\"parent_id\":27,\"fashion\":false,\"layout_mode\":\"list\",\"web_uri\":\"https://skroutz.gr/c/17/kartes-tileorashs-video-cards.html\",\"path\":\"76,1269,22,27,17\",\"show_specifications\":false,\"manufacturer_title\":\"Κατασκευαστές\"},{\"id\":22,\"name\":\"Ηλεκτρονικοί Υπολογιστές\",\"children_count\":10,\"image_url\":\"http://b.scdn.gr/images/categories/large/22.jpg\",\"parent_id\":1269,\"fashion\":false,\"layout_mode\":\"list\",\"web_uri\":\"https://skroutz.gr/c/22/hlektronikoi-ypologistes-pc.html\",\"path\":\"76,1269,22\",\"show_specifications\":false,\"manufacturer_title\":\"Κατασκευαστές\"},{\"id\":23,\"name\":\"Desktop \\u0026 Server\",\"children_count\":8,\"image_url\":\"http://b.scdn.gr/images/categories/large/23.jpg\",\"parent_id\":22,\"fashion\":false,\"layout_mode\":\"list\",\"web_uri\":\"https://skroutz.gr/c/23/desktop-and-server.html\",\"path\":\"76,1269,22,23\",\"show_specifications\":false,\"manufacturer_title\":\"Κατασκευαστές\"},{\"id\":24,\"name\":\"Υπολογιστές Desktop \\u0026 All-in-One (OEM)\",\"children_count\":0,\"image_url\":\"http://b.scdn.gr/images/categories/large/24.jpg\",\"parent_id\":23,\"fashion\":false,\"layout_mode\":\"list\",\"web_uri\":\"https://skroutz.gr/c/24/desktops.html\",\"path\":\"76,1269,22,23,24\",\"show_specifications\":false,\"manufacturer_title\":\"Κατασκευαστές\"},{\"id\":25,\"name\":\"Laptops\",\"children_count\":0,\"image_url\":\"http://a.scdn.gr/images/categories/large/20150127165806_25.jpg\",\"parent_id\":769,\"fashion\":false,\"layout_mode\":\"list\",\"web_uri\":\"https://skroutz.gr/c/25/laptop.html\",\"path\":\"76,1269,22,769,25\",\"show_specifications\":true,\"manufacturer_title\":\"Κατασκευαστές\"},{\"id\":26,\"name\":\"Servers\",\"children_count\":0,\"image_url\":\"http://b.scdn.gr/images/categories/large/26.jpg\",\"parent_id\":23,\"fashion\":false,\"layout_mode\":\"list\",\"web_uri\":\"https://skroutz.gr/c/26/servers.html\",\"path\":\"76,1269,22,23,26\",\"show_specifications\":false,\"manufacturer_title\":\"Κατασκευαστές\"},{\"id\":27,\"name\":\"Hardware\",\"children_count\":12,\"image_url\":\"http://b.scdn.gr/images/categories/large/27.jpg\",\"parent_id\":22,\"fashion\":false,\"layout_mode\":\"list\",\"web_uri\":\"https://skroutz.gr/c/27/pc-hardware.html\",\"path\":\"76,1269,22,27\",\"show_specifications\":false,\"manufacturer_title\":\"Κατασκευαστές\"},{\"id\":28,\"name\":\"Κουτιά Υπολογιστών\",\"children_count\":0,\"image_url\":\"http://a.scdn.gr/images/categories/large/28.jpg\",\"parent_id\":27,\"fashion\":false,\"layout_mode\":\"list\",\"web_uri\":\"https://skroutz.gr/c/28/cases-koutia.html\",\"path\":\"76,1269,22,27,28\",\"show_specifications\":true,\"manufacturer_title\":\"Κατασκευαστές\"},{\"id\":29,\"name\":\"Καλώδια\",\"children_count\":5,\"image_url\":\"http://a.scdn.gr/images/categories/large/20150522220029_af65ce33.jpg\",\"parent_id\":144,\"fashion\":false,\"layout_mode\":\"list\",\"web_uri\":\"https://skroutz.gr/c/29/kalodia.html\",\"path\":\"76,1269,144,29\",\"show_specifications\":false,\"manufacturer_title\":\"Κατασκευαστές\"},{\"id\":30,\"name\":\"Τροφοδοτικά Υπολογιστή\",\"children_count\":0,\"image_url\":\"http://a.scdn.gr/images/categories/large/30.jpg\",\"parent_id\":27,\"fashion\":false,\"layout_mode\":\"list\",\"web_uri\":\"https://skroutz.gr/c/30/psu-trofodotika.html\",\"path\":\"76,1269,22,27,30\",\"show_specifications\":true,\"manufacturer_title\":\"Κατασκευαστές\"},{\"id\":31,\"name\":\"Μητρικές Κάρτες\",\"children_count\":0,\"image_url\":\"http://a.scdn.gr/images/categories/large/31.jpg\",\"parent_id\":27,\"fashion\":false,\"layout_mode\":\"list\",\"web_uri\":\"https://skroutz.gr/c/31/motherboards-mhtrikes.html\",\"path\":\"76,1269,22,27,31\",\"show_specifications\":true,\"manufacturer_title\":\"Κατασκευαστές\"},{\"id\":32,\"name\":\"Επεξεργαστές\",\"children_count\":0,\"image_url\":\"http://a.scdn.gr/images/categories/large/32.jpg\",\"parent_id\":27,\"fashion\":false,\"layout_mode\":\"list\",\"web_uri\":\"https://skroutz.gr/c/32/cpu-epeksergastes.html\",\"path\":\"76,1269,22,27,32\",\"show_specifications\":true,\"manufacturer_title\":\"Κατασκευαστές\"},{\"id\":33,\"name\":\"Auto - Moto\",\"children_count\":4,\"image_url\":\"http://a.scdn.gr/images/categories/large/33.jpg\",\"parent_id\":76,\"fashion\":false,\"layout_mode\":\"list\",\"web_uri\":\"https://skroutz.gr/c/33/auto-moto.html\",\"path\":\"76,33\",\"show_specifications\":false,\"manufacturer_title\":\"Κατασκευαστές\"},{\"id\":34,\"name\":\"Βιβλία\",\"children_count\":0,\"image_url\":\"http://a.scdn.gr/images/categories/large/34.jpg\",\"parent_id\":511,\"fashion\":false,\"layout_mode\":\"list\",\"web_uri\":\"https://skroutz.gr/c/34/books.html\",\"path\":\"76,255,511,34\",\"show_specifications\":false,\"manufacturer_title\":\"Κατασκευαστές\"},{\"id\":35,\"name\":\"Ταινίες\",\"children_count\":0,\"image_url\":\"http://a.scdn.gr/images/categories/large/35.jpg\",\"parent_id\":771,\"fashion\":false,\"layout_mode\":\"list\",\"web_uri\":\"https://skroutz.gr/c/35/tainies.html\",\"path\":\"76,255,511,771,35\",\"show_specifications\":false,\"manufacturer_title\":\"Κατασκευαστές\"},{\"id\":36,\"name\":\"Μουσική\",\"children_count\":4,\"image_url\":\"http://a.scdn.gr/images/categories/large/36.jpg\",\"parent_id\":771,\"fashion\":false,\"layout_mode\":\"list\",\"web_uri\":\"https://skroutz.gr/c/36/mousikh.html\",\"path\":\"76,255,511,771,36\",\"show_specifications\":false,\"manufacturer_title\":\"Κατασκευαστές\"}],\"meta\":{\"pagination\":{\"total_results\":2207,\"total_pages\":89,\"page\":1,\"per\":25}}}",
      "headers": {
        "Server": "nginx",
        "Content-Type": "application/json; charset=utf-8",
        "Vary": "Accept-Encoding",
        "X-RateLimit-Limit": "100",
        "X-RateLimit-Remaining": "99",
        "X-RateLimit-Reset": "1455751740",
        "Status": "200 OK",
        "X-Frame-Options": "SAMEORIGIN",
        "X-XSS-Protection": "1; mode=block",
        "X-Content-Type-Options": "nosniff",
        "Link": "<https://api.skroutz.gr/categories?page=89>; rel=\"last\", <https://api.skroutz.gr/categories?page=2>; rel=\"next\"",
        "Cache-Control": "max-age=300, private",
        "ETag": "W/\"04dcad462f704c8c2432dc378179d9d0\"",
        "X-Request-Id": "1788923966",
        "X-Runtime": "0.030789",
        "X-DNS-Prefetch-Control": "off",
        "Access-Control-Allow-Origin": "*",
        "Access-Control-Allow-Methods": "HEAD, GET, POST, PUT, DELETE",
        "X-App": "kavula_ssl",
        "Content-Length": "8640",
        "Accept-Ranges": "bytes",
        "Date": "Wed, 17 Feb 2016 23:28:59 GMT",
        "X-Varnish": "1788923966",
        "Age": "0",
        "Via": "1.1 varnish",
        "X-Origin": "lb2",
        "X-Cache": "MISS"
      },
      "status_code": 200,
      "type": "ok"
    }
  }
]