[
  {
    "request": {
      "body": "",
      "headers": {
        "Accept": "application/vnd.skroutz+json; version=3",
        "Authorization": "Bearer ACCESS_TOKEN"
      },
      "method": "get",
      "options": [],
      "request_body": "",
      "url": "https://api.skroutz.gr/manufacturers/28/categories?"
    },
    "response": {
      "body": "{\"categories\":[{\"id\":40,\"name\":\"Κινητά Τηλέφωνα\",\"children_count\":0,\"image_url\":\"http://a.scdn.gr/images/categories/large/20150508124644_bd07441b.jpg\",\"parent_id\":86,\"fashion\":false,\"layout_mode\":\"list\",\"web_uri\":\"https://skroutz.gr/c/40/kinhta-thlefwna.html\",\"path\":\"76,1269,86,40\",\"show_specifications\":true,\"manufacturer_title\":\"Κατασκευαστές\"},{\"id\":12,\"name\":\"Τηλεοράσεις\",\"children_count\":0,\"image_url\":\"http://c.scdn.gr/images/categories/large/20150127161317_lg_tv_a_l.jpg\",\"parent_id\":1800,\"fashion\":false,\"layout_mode\":\"list\",\"web_uri\":\"https://skroutz.gr/c/12/television.html\",\"path\":\"76,1269,309,1800,12\",\"show_specifications\":true,\"manufacturer_title\":\"Κατασκευαστές\"},{\"id\":1105,\"name\":\"Tablets\",\"children_count\":0,\"image_url\":\"http://b.scdn.gr/images/categories/large/20150127170004_1105.jpg\",\"parent_id\":1612,\"fashion\":false,\"layout_mode\":\"list\",\"web_uri\":\"https://skroutz.gr/c/1105/tablet.html\",\"path\":\"76,1269,1612,1105\",\"show_specifications\":true,\"manufacturer_title\":\"Κατασκευαστές\"},{\"id\":582,\"name\":\"Μπαταρίες Κινητών Τηλεφώνων\",\"children_count\":0,\"image_url\":\"http://a.scdn.gr/images/categories/large/582.jpg\",\"parent_id\":86,\"fashion\":false,\"layout_mode\":\"list\",\"web_uri\":\"https://skroutz.gr/c/582/mpataries-kinhtwn-tilefwnwn.html\",\"path\":\"76,1269,86,582\",\"show_specifications\":false,\"manufacturer_title\":\"Κατασκευαστές\"},{\"id\":579,\"name\":\"Θήκες Κινητών Τηλεφώνων\",\"children_count\":0,\"image_url\":\"http://c.scdn.gr/images/categories/large/20150408173958_42b293c7.jpg\",\"parent_id\":86,\"fashion\":false,\"layout_mode\":\"tiles\",\"web_uri\":\"https://skroutz.gr/c/579/thikes-kinhtwn-thlefwnwn.html\",\"path\":\"76,1269,86,579\",\"show_specifications\":false,\"manufacturer_title\":\"Κατασκευαστές\"},{\"id\":88,\"name\":\"SSD Σκληροί Δίσκοι\",\"children_count\":0,\"image_url\":\"http://c.scdn.gr/images/categories/large/88.jpg\",\"parent_id\":1716,\"fashion\":false,\"layout_mode\":\"list\",\"web_uri\":\"https://skroutz.gr/c/88/ssd-sklhroi-diskoi.html\",\"path\":\"76,1269,22,27,46,1716,88\",\"show_specifications\":true,\"manufacturer_title\":\"Κατασκευαστές\"},{\"id\":43,\"name\":\"Οθόνες\",\"children_count\":0,\"image_url\":\"http://b.scdn.gr/images/categories/large/20150307112047_50d1d98a.jpeg\",\"parent_id\":22,\"fashion\":false,\"layout_mode\":\"list\",\"web_uri\":\"https://skroutz.gr/c/43/othones-tft.html\",\"path\":\"76,1269,22,43\",\"show_specifications\":true,\"manufacturer_title\":\"Κατασκευαστές\"},{\"id\":404,\"name\":\"Ψυγεία\",\"children_count\":0,\"image_url\":\"http://b.scdn.gr/images/categories/large/404.jpg\",\"parent_id\":1272,\"fashion\":false,\"layout_mode\":\"list\",\"web_uri\":\"https://skroutz.gr/c/404/psigeia.html\",\"path\":\"76,11,54,1272,404\",\"show_specifications\":true,\"manufacturer_title\":\"Κατασκευαστές\"},{\"id\":405,\"name\":\"Πλυντήρια Ρούχων\",\"children_count\":0,\"image_url\":\"http://b.scdn.gr/images/categories/large/405.jpg\",\"parent_id\":1272,\"fashion\":false,\"layout_mode\":\"list\",\"web_uri\":\"https://skroutz.gr/c/405/plynthria-rouxwn.html\",\"path\":\"76,11,54,1272,405\",\"show_specifications\":true,\"manufacturer_title\":\"Κατασκευαστές\"},{\"id\":581,\"name\":\"Φορτιστές Κινητών Τηλεφώνων\",\"children_count\":0,\"image_url\":\"http://a.scdn.gr/images/categories/large/581.jpg\",\"parent_id\":86,\"fashion\":false,\"layout_mode\":\"list\",\"web_uri\":\"https://skroutz.gr/c/581/fortistes-kinhtwn-tilefwnwn.html\",\"path\":\"76,1269,86,581\",\"show_specifications\":false,\"manufacturer_title\":\"Κατασκευαστές\"},{\"id\":119,\"name\":\"Εκτυπωτές\",\"children_count\":0,\"image_url\":\"http://c.scdn.gr/images/categories/large/20150527173939_85e69b12.jpg\",\"parent_id\":770,\"fashion\":false,\"layout_mode\":\"list\",\"web_uri\":\"https://skroutz.gr/c/119/printers.html\",\"path\":\"76,1269,22,39,770,119\",\"show_specifications\":true,\"manufacturer_title\":\"Κατασκευαστές\"},{\"id\":1608,\"name\":\"Θήκες Tablet\",\"children_count\":0,\"image_url\":\"http://d.scdn.gr/images/categories/large/1608.jpg\",\"parent_id\":1612,\"fashion\":false,\"layout_mode\":\"tiles\",\"web_uri\":\"https://skroutz.gr/c/1608/thikes-tablet.html\",\"path\":\"76,1269,1612,1608\",\"show_specifications\":true,\"manufacturer_title\":\"Κατασκευαστές\"},{\"id\":584,\"name\":\"Handsfree Ακουστικά\",\"children_count\":0,\"image_url\":\"http://a.scdn.gr/images/categories/large/20150609113227_2f901046.jpg\",\"parent_id\":86,\"fashion\":false,\"layout_mode\":\"tiles\",\"web_uri\":\"https://skroutz.gr/c/584/hands-free.html\",\"path\":\"76,1269,86,584\",\"show_specifications\":false,\"manufacturer_title\":\"Κατασκευαστές\"},{\"id\":1705,\"name\":\"Smartwatches\",\"children_count\":0,\"image_url\":\"http://a.scdn.gr/images/categories/large/20150508163903_9d5810ce.jpg\",\"parent_id\":1912,\"fashion\":false,\"layout_mode\":\"tiles\",\"web_uri\":\"https://skroutz.gr/c/1705/Smartwatches.html\",\"path\":\"76,1269,1912,1705\",\"show_specifications\":true,\"manufacturer_title\":\"Κατασκευαστές\"},{\"id\":435,\"name\":\"Bluetooth Handsfree\",\"children_count\":0,\"image_url\":\"http://d.scdn.gr/images/categories/large/435.jpg\",\"parent_id\":86,\"fashion\":false,\"layout_mode\":\"tiles\",\"web_uri\":\"https://skroutz.gr/c/435/hands-free-bluetooth.html\",\"path\":\"76,1269,86,435\",\"show_specifications\":true,\"manufacturer_title\":\"Κατασκευαστές\"},{\"id\":87,\"name\":\"Εξωτερικοί Σκληροί Δίσκοι\",\"children_count\":0,\"image_url\":\"http://d.scdn.gr/images/categories/large/87.jpg\",\"parent_id\":46,\"fashion\":false,\"layout_mode\":\"list\",\"web_uri\":\"https://skroutz.gr/c/87/eksoterikoi-sklhroi-diskoi.html\",\"path\":\"76,1269,22,27,46,87\",\"show_specifications\":true,\"manufacturer_title\":\"Κατασκευαστές\"},{\"id\":565,\"name\":\"Home Cinema\",\"children_count\":0,\"image_url\":\"http://b.scdn.gr/images/categories/large/20150127161145_LG-HX-806PG.jpg\",\"parent_id\":767,\"fashion\":false,\"layout_mode\":\"list\",\"web_uri\":\"https://skroutz.gr/c/565/home-cinemas.html\",\"path\":\"76,1269,767,565\",\"show_specifications\":true,\"manufacturer_title\":\"Κατασκευαστές\"},{\"id\":409,\"name\":\"Φούρνοι Μικροκυμάτων\",\"children_count\":0,\"image_url\":\"http://a.scdn.gr/images/categories/large/409.jpg\",\"parent_id\":1271,\"fashion\":false,\"layout_mode\":\"list\",\"web_uri\":\"https://skroutz.gr/c/409/fournoi-mikrokymatwn.html\",\"path\":\"76,11,54,1271,409\",\"show_specifications\":true,\"manufacturer_title\":\"Κατασκευαστές\"},{\"id\":1735,\"name\":\"Soundbar\",\"children_count\":0,\"image_url\":\"http://d.scdn.gr/images/categories/large/20150117214901_uk_HW-F750-XU_539_Front_black_thumb.jpg\",\"parent_id\":767,\"fashion\":false,\"layout_mode\":\"list\",\"web_uri\":\"https://skroutz.gr/c/1735/soundbar.html\",\"path\":\"76,1269,767,1735\",\"show_specifications\":false,\"manufacturer_title\":\"Κατασκευαστές\"},{\"id\":431,\"name\":\"Blu-Ray, DVD Players / Recorders\",\"children_count\":0,\"image_url\":\"http://a.scdn.gr/images/categories/large/20150114202043_dvd.jpg\",\"parent_id\":1804,\"fashion\":false,\"layout_mode\":\"list\",\"web_uri\":\"https://skroutz.gr/c/431/dvd_players_recorders.html\",\"path\":\"76,1269,309,1804,431\",\"show_specifications\":true,\"manufacturer_title\":\"Κατασκευαστές\"},{\"id\":89,\"name\":\"Οδηγοί Οπτικών Μέσων\",\"children_count\":0,\"image_url\":\"http://c.scdn.gr/images/categories/large/89.jpg\",\"parent_id\":48,\"fashion\":false,\"layout_mode\":\"list\",\"web_uri\":\"https://skroutz.gr/c/89/optical-drives.html\",\"path\":\"76,1269,22,27,48,89\",\"show_specifications\":true,\"manufacturer_title\":\"Κατασκευαστές\"},{\"id\":616,\"name\":\"Toners, Drums\",\"children_count\":0,\"image_url\":\"http://b.scdn.gr/images/categories/large/616.jpg\",\"parent_id\":84,\"fashion\":false,\"layout_mode\":\"list\",\"web_uri\":\"https://skroutz.gr/c/616/laser-toner.html\",\"path\":\"76,1269,22,39,770,84,616\",\"show_specifications\":false,\"manufacturer_title\":\"Κατασκευαστές\"},{\"id\":407,\"name\":\"Οικιακά Κλιματιστικά Inverter\",\"children_count\":0,\"image_url\":\"http://b.scdn.gr/images/categories/large/407.jpg\",\"parent_id\":1702,\"fashion\":false,\"layout_mode\":\"list\",\"web_uri\":\"https://skroutz.gr/c/407/oikiaka-klimatistika-inverter.html\",\"path\":\"76,11,54,1270,1702,407\",\"show_specifications\":true,\"manufacturer_title\":\"Κατασκευαστές\"},{\"id\":566,\"name\":\"Ηχοσυστήματα\",\"children_count\":0,\"image_url\":\"http://a.scdn.gr/images/categories/large/566.jpg\",\"parent_id\":767,\"fashion\":false,\"layout_mode\":\"list\",\"web_uri\":\"https://skroutz.gr/c/566/ixosysthmata.html\",\"path\":\"76,1269,767,566\",\"show_specifications\":true,\"manufacturer_title\":\"Κατασκευαστές\"},{\"id\":436,\"name\":\"Ηλεκτρικές Σκούπες\",\"children_count\":0,\"image_url\":\"http://d.scdn.gr/images/categories/large/436.jpg\",\"parent_id\":2391,\"fashion\":false,\"layout_mode\":\"list\",\"web_uri\":\"https://skroutz.gr/c/436/hlektrikes-skoupes.html\",\"path\":\"76,11,54,1271,2391,436\",\"show_specifications\":true,\"manufacturer_title\":\"Κατασκευαστές\"}],\"meta\":{\"pagination\":{\"total_results\":114,\"total_pages\":5,\"page\":1,\"per\":25}}}",
      "headers": {
        "Server": "nginx",
        "Content-Type": "application/json; charset=utf-8",
        "Vary": "Accept-Encoding",
        "X-RateLimit-Limit": "100",
        "X-RateLimit-Remaining": "99",
        "X-RateLimit-Reset": "1455837600",
        "Status": "200 OK",
        "X-Frame-Options": "SAMEORIGIN",
        "X-XSS-Protection": "1; mode=block",
        "X-Content-Type-Options": "nosniff",
        "Link": "<https://api.skroutz.gr/manufacturers/28/categories?page=5>; rel=\"last\", <https://api.skroutz.gr/manufacturers/28/categories?page=2>; rel=\"next\"",
        "ETag": "W/\"5d83df12bab667b020ed871acb465242\"",
        "Cache-Control": "max-age=0, private, must-revalidate",
        "X-Request-Id": "1800370410",
        "X-Runtime": "0.035892",
        "X-DNS-Prefetch-Control": "off",
        "Access-Control-Allow-Origin": "*",
        "Access-Control-Allow-Methods": "HEAD, GET, POST, PUT, DELETE",
        "X-App": "kavula_ssl",
        "Content-Length": "9004",
        "Accept-Ranges": "bytes",
        "Date": "Thu, 18 Feb 2016 23:19:00 GMT",
        "X-Varnish": "1800370410",
        "Age": "0",
        "Via": "1.1 varnish",
        "X-Origin": "lb2",
        "X-Cache": "MISS"
      },
      "status_code": 200,
      "type": "ok"
    }
  }
]