[
  {
    "request": {
      "body": "",
      "headers": {
        "Accept": "application/vnd.skroutz+json; version=3",
        "Authorization": "Bearer ACCESS_TOKEN"
      },
      "method": "get",
      "options": [],
      "request_body": "",
      "url": "https://api.skroutz.gr/shops/452/reviews?"
    },
    "response": {
      "body": "{\"reviews\":[{\"id\":54575,\"user_id\":164507,\"review\":\"Αγόρασα τον στίφτη Moulinex PC600G.Η παραγγελία έγινε Δευτέρα μεσημέρι 08.02.2016.Την τρίτη το πρωί είχα παραλάβει το προϊον με courier σε πολύ καλή συσκευασία.\",\"rating\":4,\"shop_reply\":null,\"created_at\":\"2016-02-10T15:02:52+02:00\"},{\"id\":54429,\"user_id\":340703,\"review\":\"Αγόρασα ένα ψυγείο LG απο το κατάστημα της Πέτρου Ράλλη. Η συμπεριφορά των υπαλλήλων ήταν άψογη. Μου εξήγησαν τα πάντα και με βοήθησαν για τα πάντα. Παρόλο που μου είπαν πως επειδή θα γινόταν παραγγελία και ήθελε 15 μέρες, στις 10 μέρες με πήραν τηλέφωνο ότι ήρθε το ψυγείο. Και η παράδοση έγινε ακριβώς όπως μου είχαν πει. Και την προηγούμενη με ειδοποίησαν πότε θα έρθουν με γραπτό μήνυμα. Και ήρθαν όντως στο 2ωρο που είπαν. \\r\\nΚαι οφείλω να ομολογήσω ότι η δωροεπιταγή των 100 ευρώ με βοήθησε να αγοράσω και μια τηλεόραση Samsung απο τον Κωτσόβολο. Και τα δυο σε άριστη κατάσταση.\\r\\n\\r\\nΑν θα έλεγα κάτι αρνητικό είναι πως με πήραν 4-5 φορές αφού αγόρασα το ψυγείο για να μου κάνουν καλύτερη προσφορά απο τα κεντρικά για το ψυγείο.  Η γνώμη μου είναι πως πρέπει να πάτε στο κατάστημα να δώσετε τα στοιχεία σας ότι ενδιαφέρεστε για το προιον που θέλετε και μετά να περιμένετε τηλέφωνο τους. Θα σας πάρουν σίγουρα και θα είναι καλύτερη η προσφορά οικονομικά, οπότε αξίζει να περιμένετε. Εννοώ απο την έκπτωση που θα σας κάνουν απευθείας στο μαγαζί. Εγω τουλάχιστον πια αυτό θα κάνω τώρα που το ξέρω.\",\"rating\":5,\"shop_reply\":null,\"created_at\":\"2016-02-08T21:22:43+02:00\"},{\"id\":54220,\"user_id\":9977,\"review\":\"Αγόρασα το xbox one fifa16 bundle με δώρο το lumia 532 της microsoft με αντικαταβολή.\\r\\n\\r\\nΑν και απο δικό μου λάθος αρχικά δεν παρέλαβα έστειλα ενα email για να μου ξαναστείλουν την ίδια παραγγελία μετα απο περίπου 10 ημέρες.\\r\\n\\r\\nΜε κάλεσαν μετα απο λίγη ώρα για να επιεβεβαιώσουν και μου ξαναέστειλαν το πακέτο.\\r\\n\\r\\nΑυτη ηταν μια πολύ καλή κίνηση και με κέρδισε ως πελάτη.\\r\\n\\r\\nΟ χρόνος παράδοσης ηταν άμεσος και η συσκευασία του προιόντος ικανοιητική.\",\"rating\":5,\"shop_reply\":null,\"created_at\":\"2016-02-05T15:54:27+02:00\"},{\"id\":54154,\"user_id\":302637,\"review\":\"Αγόρασα 3 προιόντα τα οποία πιστεύω ότι δεν υπήρχαν στο κατάστημα του Κωτσόβολου στο Αγρίνιο που μένω και τα οποία παράγγειλα ηλεκτρονικά. Εναν ατμομάγειρα, μια κουρευτική μηχανή και έναν σκληρό δίσκο. Ελαβα έπειτα από 3 ημέρες τα δέματα από την μεταφορική εταιρία και φτάνωντας σπίτι συνειδητοποίησα ότι δεν υπάρχει στα κουτιά η κουρευτική μηχανή την οποία πλήρωσα κανονικά και υπήρχε στην απόδειξη. Τηλεφώνησα στο κέντρο εξυπηρέτησης για οδηγείες και ο υπάλληλος μου απάντησε ότι θα ελεγθεί το αίτημα και ίσως την άλλη εβδομάδα δρομολογηθεί η παραγγελία λες και δεν την έχουν ήδη πληρωθεί. Παραγγέλνω από εξωτερικό πάρα πολλά χρόνια και δεν μου χει τύχει ποτέ τίποτα παρόμοιο.\",\"rating\":1,\"shop_reply\":null,\"created_at\":\"2016-02-04T19:31:33+02:00\"},{\"id\":53986,\"user_id\":412885,\"review\":\"2 μηνες καθυστερηση τουλαχιστον! 28-12 παράγγειλα την κουζίνα AEG 68456VS-MN σε προσφορά από 998€ στην τιμή των 700€. Το προϊόν είχε την ένδειξη κατόπιν παραγγελίας, οπότε εξαρχής ήξερα οτι θα καθυστερήσει. 4-1 επικοινώνησα με το κατάστημα και μου είπαν ότι αναμένεται στις 15-1 από τον προμηθευτή. 20-1 ξαναπήρα τηλέφωνο επειδή κουζίνα δεν έβλεπα και μου λένε ότι λόγω καθυστέρησης από τον προμηθευτή η κουζίνα αναμένεται 5-2. Σήμερα 4-2 με παίρνουν οι ίδιοι τηλέφωνο από τον Κωτσόβολο και μου λένε ότι λόγω νέας καθυστέρησης, η κουζίνα αναμένεται 25-2!!!!!!!!!!! Δηλαδή δύο μήνες από την ημερομηνία παραγγελίας και άμα, γιατί κανείς δεν μου εγγυάται ότι δεν θα υπάρξει και νέα καθυστέρηση. Εν τω μεταξύ όλο αυτό το διάστημα η κουζίνα εξακολουθεί να υπάρχει στο site με την ένδειξη κατόπιν παραγγελίας σε άλλη βέβαια τιμή.\",\"rating\":1,\"shop_reply\":null,\"created_at\":\"2016-02-03T10:49:13+02:00\"},{\"id\":53549,\"user_id\":333693,\"review\":\"Σε παραγγελία απο 11/1 για προιόν που είχε αμεση διαθεσιμότητα, σήμερα στις 28/1 τρεις εργάσιμες εβδομάδες μετά για δευτερη φορά το προιόν μου θα φορτωθεί 'αύριο'.\",\"rating\":1,\"shop_reply\":null,\"created_at\":\"2016-01-28T19:50:50+02:00\"},{\"id\":53301,\"user_id\":279076,\"review\":\"Παρ'όλο που αναφεροταν παραλαβη σε 7 εργασιμες παρελαβε την παραγγελια μου μετα απο 2 .\",\"rating\":5,\"shop_reply\":null,\"created_at\":\"2016-01-26T13:38:48+02:00\"},{\"id\":53236,\"user_id\":54228,\"review\":\"Αγόρασα μια τηλεόραση LG.\\r\\nΗ όλη διαδικασία ήταν πολύ καλή.Δεν αντιμετώπισα πρόβλημα πουθενά.Ο χρόνος παραδώσεις ήταν ακριβής μέσα στις 2 ώρες που μου είχαν αναγγείλει οι υπεύθυνοι της μεταφοράς.Πλήρωσα με μετρητά στο κατάστημα.Όλα καλά.Τέλος η συσκευασία της τηλεόρασης ήταν άθικτη,δεδομένου ότι και η ίδια εταιρεία μόλις παρέλαβε την συγκεκριμένη τηλεόραση στις αποθήκες της.Θα είμαι πελάτης τους ξανά ασφαλώς.\",\"rating\":5,\"shop_reply\":null,\"created_at\":\"2016-01-25T16:04:13+02:00\"},{\"id\":53010,\"user_id\":414181,\"review\":\"24 μέρες περίμενα για την παραγγελία.Πήρα μια φορά να ρωτησω και μου είπαν για πιθανή ημερομηνία παράδοσης την επόμενη μέρα στο κατάστημα, ξανα πήρα μετά απο δέκα μέρες και μου είπαν οτι δεν ξέρουν καν πότε θα παραλάβουν.\",\"rating\":1,\"shop_reply\":null,\"created_at\":\"2016-01-21T23:40:07+02:00\"},{\"id\":53000,\"user_id\":147944,\"review\":\"Παραγγειλα ενα αφηγραντηρα της 13/1 απο το συγκεκριμενο καταστημα για το λογο  οτι ηταν διαθέσιμος σε 1 με 3 μερες οπως ελεγε.σημερα 21/1 δεν εχω παραλαβει τιποτα και δεν εχω και καμια Ενημέρωση απο το καταστημα.\",\"rating\":1,\"shop_reply\":null,\"created_at\":\"2016-01-21T21:58:12+02:00\"},{\"id\":52912,\"user_id\":170239,\"review\":\"Πήρα ένα στεγνωτήριο ΑEG kai είναι η δευτερη αγορά που κάνω από το συγκεκριμένο κατάστημα! Όλα άψογα! Στην ώρα τους και μάλιστα με μήνυμα που σου ορίζουν 2ωρο για να μην περιμένεις όλη μέρα! Μπράβο σας συνεχίστε έτσι!\",\"rating\":5,\"shop_reply\":null,\"created_at\":\"2016-01-20T20:34:32+02:00\"},{\"id\":52734,\"user_id\":43911,\"review\":\"Παρήγγειλα ένα καλώδιο HDMI και επέλεξα να μου αποσταλεί με courier και να πληρώσω με αντικαταβολή. Είχα κι ένα κουπόνι έκπτωσης 5 ευρώ από προηγούμενη αγορά. Το προϊόν μου παραδόθηκε μέσα στον προγραμματισμένο χρόνο και αφού πρώτα είχα λάβει SMS με το tracking number. Κανένα πρόβλημα μα την παραγγελία και το προϊόν δουλεύει μία χαρά!\",\"rating\":5,\"shop_reply\":null,\"created_at\":\"2016-01-18T19:00:00+02:00\"},{\"id\":52654,\"user_id\":412042,\"review\":\"Τον περαμένο Οκτώβριο παρήγγειλα από τον Κωτσόβολο τον ραδιοενισχυτή ONKYO TX-NR 646 με πιστωτική κάρτα και 12 άτοκες δόσεις. Η τιμή του ήταν 629€ ενώ στην αντιπροσωπεία 659€. Λίγες μέρες μετά με πήραν τηλέφωνο για επιβεβαίωση της παραγγελίας μου και την επιβεβαίωσα. Η αρχική διαθεσιμότητα έλεγε κατόπιν παραγγελίας και στο τηλέφωνο μου είπαν 15 μέρες περίπου. Η πρώτη έκπληξη ήταν ότι 3-4 μέρες μετά την επιβεβαίωση κρατήθηκε η πρώτη δόση από την πιστωτική κάρτα. Χωρίς βέβαια να έχω παραλάβει κάτι. Οι 15 μέρες πέρασαν αλλά η παραγγελία πουθενά. Σε τηλεφωνική επικοινωνία απάντησαν ότι δεν έχει γίνει ακόμη η εισαγωγή από την Μαλαισία και με ρώτησαν με κάποια δόση προτροπής?! αν θέλω να ακυρώσω την παραγγελία. Είπα ας περιμενω λίγο ακόμη και το άφησα. Ταυτόχρονα πρόσεξα ότι η τιμή του ραδιοενισχυτή και στον Κωτσόβολο ειχε ανέβει στα 659€ όσο και η τιμή στην αντιπροσωπεία. Φυσικά ο ραδιοενισχυτής δεν ηρθε ποτέ και ακύρωσα την παραγγελία στα μέσα Νοεμβρίου περίπου. Οι δόσεις πραγματικά επιστρέφονται μηνιαία μετά από κάθε μηνιαία χρέωση της κάρτας μου αντίστοιχα, όμως η διαδικασία θα κρατήσει ένα έτος.\",\"rating\":1,\"shop_reply\":null,\"created_at\":\"2016-01-17T14:45:10+02:00\"},{\"id\":52465,\"user_id\":99972,\"review\":\"Αγόρασα ένα laptop HP 15-ak000nv στην καλύτερη τιμή της αγοράς και σε 36 άτοκες δόσεις...χωρίς καμία επιπλέον επιβάρυνση ούτε στην κάρτα ,αλλά ούτε και στα μεταφορικά. Λέμε για τα σκρουτζομάγαζα...αλλά όταν θέλουν τα mainstream αλυσίδες κάνουν άριστες τιμές. Η παραγγελία έγινε διαδικτυακά...βέβαια δεν έγινε καμία τηλεφωνική επιβεβαίωση. Αυτό λίγο με άγχωσε....αλλά σε 48 ώρες το \\\"μηχάνημα\\\" ήταν έξω από την πόρτα μου. Μπράβο στον Κωτσοβολος....όταν θα ξανα έχεις τέτοιες καλές τιμές θα σε ξανά προτιμήσω !!!\",\"rating\":5,\"shop_reply\":null,\"created_at\":\"2016-01-14T21:52:09+02:00\"},{\"id\":51850,\"user_id\":400841,\"review\":\"Αγόρασα  εναν σκληρό δίσκο samsung SSD  αυτο που μπορω να πω για την Κωτσόβολος ειναι οτι ολοι μα ολοι ειναι παντα μα παντα τοσο εξυπηρετικοι, κατα την διαρκεια της αγορας αλλα το σημαντικο ειναι οτι ειναι ακομα ποιο εξυπηρετικοι οταν το προιον παθει κατι σκίζονται να σε εξυπηρετησουν,, παντου σε ολα τα κατσηματα! μπραβο και παλι μπραβο ολοι στο σπιτι μου μονο απο κωτσοβολο ψωνιζουμε  τοσα χρονια απο τοτε που ανοιξε και μονο εκει πηγαινουμε,,ολο το προσωπικο σωστα εκπαιδευμενο με αριστες γνωσεις στα προιοντα.μπραβο και παλι μπραβο. Καλη χρονια παιδια με υγεια!\",\"rating\":5,\"shop_reply\":null,\"created_at\":\"2016-01-07T14:59:36+02:00\"},{\"id\":51698,\"user_id\":43911,\"review\":\"Αγόρασα μία κουζινομηχανή της Moulinex για να την κάνω δώρο. Είχα τηλεφωνήςει την προηγούμενη ημέρα και τους είχα ρωτήςει για τα χαρακτηριστικά της συσκευής και μου είχαν πει ότι ήταν και blender, όπως έγραφε και στο site τους. Υπήρχε αρκετά φθηνότερη σε άλλα καταστήματα, αλλά ο Κωτσόβολος έδινε μία δωροεπιταγή 50 ευρώ με την αγορά και μου έδινε τη δυνατότητα να αγοράσω έξτρα εγγύηση. Την ίδια μέρα που έκανα online παραγγελία, πήγα από το κατάστημα και παρέλαβα. Όταν την παρέλαβα κατάλαβα ότι μάλλον δεν έχει μέσα εξάρτημα για blender και τους τηλεφώνησα ξανά. Με διαβεβαίωσαν ότι είναι και blender, οπότε έμεινα ήσυχος. Την επόμενη ημέρα όταν ανοίχτηκε το δώρο είδα ότι δεν είχε blender! Όχι ότι έλειπε από τη συσκευασία, το συγκεκριμένο μοντέλο ήθελε έξτρα αξεσουάρ για να γίνει blender.  Τηλεφώνησα ξανά και τους εξήγησα τι συνέβη. Αφού με περνούσαν από τμήμα σε τμήμα, και αφού μου είπαν ότι \\\"όταν γράφει ότι διαθέτει blender εννοεί ότι πρέπει να αγοράσετε έξτρα αξεσουάρ μέσω της αντιπροσωπείας και να το πληρώσετε εσείς\\\" με συνέδεσαν με το τμήμα παραπόνων όπου μου είπαν να το πάω σε κατάστημα. Το πήγα και το κατάστημα μου πρότεινε να πάρουν τη συσκευή πίσω και μου προσέφεραν με μία διαφορά ένα καλύτερο μοντέλο της juro-pro που έχει και blender το οποίο μου έδωσαν με έκπτωση 74 ευρώ από την αρχική του τιμή, καθώς ήταν 120 ευρώ ακριβότερο από το Moulinex, μου έδωσαν δωροεπιταγή 100 ευρώ αντί για 50 και μου έκαναν έκπτωση και 10 ευρώ στην επιπλέον εγγύηση.\\r\\nΤο τηλεφωνικό κέντρο δυστυχώς χάλασε την εμπειρία, καθώς στο κατάστημα ενδιαφέρθηκαν να με εξυπηρετήσουν. Περιττό να πω ότι ακόμα στο site έχει τα λάθος χαρακτηριστικά!\\r\\nΚαλό θα ήταν να προσέχουν περισσότερο τα χαρακτηριστικά, καθώς στο συγκεκριμένο μοντέλο άλλα site δεν το προσφέρουν κι ως blender, οπότε δε νομίζω να είναι λάθος της Moulinex!\",\"rating\":3,\"shop_reply\":null,\"created_at\":\"2016-01-05T03:25:12+02:00\"},{\"id\":51497,\"user_id\":399402,\"review\":\"Αγόρασα κάποια είδη για το σπίτι (παιδικό φωτιστικό, μπρικέτες Weber, τοστιέρα κτλ). Η παραγγελία έγινε ηλεκτρονικά με πληρωμή μέσω πιστωτικής. Από τη μεριά του Κωτσόβολου όλα ήταν άψογα! Το πρόβλημα ήταν η παράδοση και έχει να κάνει με τη Γενική Ταχυδρομική... να μην τα πολυλογώ έλαβα τα πράγματα με καθυστέρηση, σε τμηματικές παραδόσεις και έπειτα από επίπονη διαδικασία συννενόησης / επικοινωνίας μαζί τους..... Δεν μπορώ να σχολιάσω τις πολλές αρνητικές αξιολογήσεις από άλλους πελάτες που βλέπω στο Skroutz, η προσωπική μου εμπειρία από τον Κωτσόβολο (είμαι χρόνια πελάτης) ήταν πάντα η καλύτερη... με εξαίρεση την εν λόγω μεταφορική εταιρεία! Παλαιότερα θυμάμαι ότι συνεργάζονταν με άλλη εταιρεία, ενώ κάποια είδη τα είχα λάβει από προσωπικό μεταφορών του Κωτσόβολου (τουλάχιστον το φορτηγάκι είχε αυτό το σήμα): δεν είχα ποτέ πρόβλημα! Πιστεύω ότι δεν αρμόζει στην (ίσως) μεγαλύτερη αλυσίδα καταστημάτων του είδους στην Ελλάδα να συνεργάζεται με την Γενική Ταχυδρομική!\",\"rating\":5,\"shop_reply\":null,\"created_at\":\"2015-12-31T13:16:05+02:00\"},{\"id\":51467,\"user_id\":397068,\"review\":\"Παρήγγειλα απο κατάστημα της Χαλκιδας 1 ψυγείο Bosch, 1 κουζίνα electrolux και 1 πλυντηριο siemens στις 11/12/15 και απο το κατάστημα μου είπαν οτι είναι ετοιμοπαράδωτα (ψυγείο, κουζίνα) και θα ερχόντουσαν στις 16/12 πιθανότατα, εκτός απο το πλυντήριο που θα ερχόταν το πολύ σε 20 ημερολογιακές.\\r\\n \\r\\nΑφού όμως εχω κάνει την παραγγελία, διαβάζω εκ των υστέρων στα site, αξιολογήσεις για τον Κοτσωβολο και η αλήθεια είναι οτι αν το είχα κάνει νωρίτερα αυτό, πιθανόν και να μην τα είχα παραγγείλει ποτέ απο εκεί...\\r\\n \\r\\nΤο αποτέλεσμα όμως και προς έκπληξή μου, ήταν το ακριβώς αντίθετο, δλδ έλαβα sms στις 16/12/15 το πρωί για το ακριβές 2ωρο παράδωσης (12:00-14:00 έλεγε) και στις 13:40 το φορτηγό ήρθε και μαζί με κουζίνα, ψυγείο, έφεραν και το πλυντήριο τελικά!!!!!!\\r\\n \\r\\nΕμεινα απόλυτα ευχαριστημένος και απο το κατάστημα, αλλα και απο τα παιδια που μου έφεραν τα πράγματα, ηταν ευγενέστατοι όλοι τους.\\r\\n \\r\\nΥ.Γ: Τα περισσότερα παράπονα τα είδα απο βόρεια Ελλάδα, ευρύτερη περιοχή της Θεσ/νικης.\\r\\nΜήπως ο Κοτσώβολος θα πρέπει να τσεκάρει λίγο το θέμα εκει πάνω.... είναι κρίμα να ταλαιπωρούνται ανθρώποι που δείχνουν την εμπιστοσύνη τους σε ενα κατάστημα..\",\"rating\":5,\"shop_reply\":null,\"created_at\":\"2015-12-31T09:24:50+02:00\"},{\"id\":51394,\"user_id\":372860,\"review\":\"Τηλεόραση LG 40LF630V, από 19/12 και 30/12 δεν την έχω λάβει ακόμα πριν 2 ημέρες θα έφευγε για την μεταφορική και όταν ξανακάλεσα σήμερα θα έφευγε σήμερα πάλι.\",\"rating\":1,\"shop_reply\":null,\"created_at\":\"2015-12-30T14:41:52+02:00\"},{\"id\":51303,\"user_id\":143177,\"review\":\"Παρήγγειλα ένα στεγνωτήριο Pitsos που δεν ήταν άμεσα διαθέσιμο. Μετά από αρκετές ημέρες επικοινώνησα μαζί του και με ενημέρωσαν ότι δεν το είχαν παραλάβει ακόμη και ότι μπορούσα να αλλάξω την παραγγελία μου με κάποιο άμεσα διαθέσιμο. Διάλεξα ένα candy και μέχρι να κάνω την αλλαγή και να επικοινωνήσω μαζί τους είχε έρθει και το pitsos στην αποθήκη τους. Μπαίνοντας όμως στο site τους είδα ότι πλέον το pitsos το είχαν 10 ευρώ φτηνότερο και μάλιστα έδιναν και μία δωροεπιταγή και ένα δώρο (όλα μαζί αξίας 100 ευρώ). Δέχτηκαν να μου κατεβάσουν την τιμή και να μου δώσουν και τα δώρα. Κοινώς τους έκανα άνω κάτω αλλά αυτοί ευγενέστατα μου έκαναν όλα τα χατίρια. Όταν μου το έφεραν στη Θεσσαλονίκη οι μεταφορείς το ανέβασαν έως το διαμέρισμα, το άνοιξαν και προσφέρθηκαν να μου το τοποθετήσουν και εκεί που ήθελα Δωρεάν. Δυστυχώς δεν είχα ειδική βάση για να το βάλουν επάνω από το πλυντήριο.\",\"rating\":5,\"shop_reply\":null,\"created_at\":\"2015-12-29T16:52:36+02:00\"},{\"id\":51258,\"user_id\":295856,\"review\":\"Πηρα τηλεφωνο για ενα παιχνιδι υπολογιστη που εδειχνε πως το ειχαν ετοιμοπαραδοτο ενω αλλοι ζητουσαν 3-4 αναμονη.\\r\\nΠεριμενα μερικα λεπτα στο ακουστικο γιατι απο την 1η κοπελα με συνδεσαν σε 2η και τελικα η 3η κοπελα μου το εκανε κρατηση αφου με ρωτησε σε ποια περιοχη με βολευει,το ζητησα στο μαγαζι στην Δραγατσανιου και μου εδωσε εναν κωδικο.\\r\\nΠαρουσιαστηκα το απογευμα στο ταμειο και σε 1' ειχα φυγει ετοιμος,η χαμηλοτερη τιμη,πολυ καλη εξυπηρετηση και ευγενεια.\",\"rating\":5,\"shop_reply\":null,\"created_at\":\"2015-12-28T22:29:37+02:00\"},{\"id\":51246,\"user_id\":58410,\"review\":\"Για ακόμη μια φορά όλα κύλησαν ομαλά!! Αγορά ενός εκτυπωτή και ενός εξαρτήματος για το χειστηριο του Xbox One!! Ο εκτυπωτής ήταν άψογα συσκευασμένος, όχι όμως και το εξάρτημα που ήρθε ναι μεν  μέσα στη συσκευασία του σφραγισμένο αλλα τυλιγμένο μόνο μέσα σε μια σακούλα \\\"Κωτσοβολος\\\"... Παρόλα αυτά και τα δυο είδη ήταν άθικτα!! Η αγορά έγινε μέσω πιστωτικής κάρτας και άτοκων δόσεων, πολυ εύκολα και απλά!! Μεγάλο πλεονέκτημα οφείλω να ομολογήσω για τα καταστήματα που δέχονται άτοκες δόσεις μέσω πιστωτικής και ο Κωτσοβολος ειναι ένα από αυτά!! Οι εντυπώσεις θετικές για άλλη μια φορά!! Χρόνια πολλά σε Όλους!! :ο)\",\"rating\":5,\"shop_reply\":null,\"created_at\":\"2015-12-28T20:34:47+02:00\"},{\"id\":51243,\"user_id\":60195,\"review\":\"Αγόραση σετ φουρνο και εστιες της bosch kai κινητο cat B25.\\r\\nΕυγενεια και συνεπεια διακρινουν το καταστημα\\r\\nΗ ποιοτητα των προϊοντων εξαιρετικη\",\"rating\":5,\"shop_reply\":null,\"created_at\":\"2015-12-28T20:15:53+02:00\"},{\"id\":50747,\"user_id\":225174,\"review\":\"Αγόρασα 1 smartphone samsung grand prime value edition, το παράγγειλα από το κατάστημα Χίου στις   10/12/2015 Πέμπτη μεσημερι, το παρέλαβα  από εκεί  τρίτη (15/12/2015) μεσημερι, όπως  μου είπαν. Δεν ήταν η καλύτερη τιμή αν κ μου έκοψαν αρκετά. Επίσης αγόρασα κ 1 κονσόλα WII mini σε πολύ καλή τιμή.  Πλήρωσα κ τα 2 με πιστωτική σε 4 άτοκες δόσεις. Οκ, τα προϊόντα,  κανένα πρόβλημα.\",\"rating\":5,\"shop_reply\":null,\"created_at\":\"2015-12-20T23:04:10+02:00\"},{\"id\":50585,\"user_id\":163777,\"review\":\"Αγόρασα την Krups XN2601S U\\u0026 Milk Μηχανή Espresso από Αθήνα λόγω κάποιον υποχρεώσεων αν και ζω στην επαρχία.Με την υπηρεσία που διαθέτει,μέσα σε μία ώρα είχα το δικαίωμα να παραλάβω την μηχανή,σε όποιο κατάστημα την είχε διαθεσιμότητα  και ευτυχώς στην Αθήνα έχει αρκετά.Τέλεια εξυπηρέτηση απλά με ένα email που έγραφε τον Αριθμό κράτησης(οποίος το δεσμεύει για 48Ωρες)πήγα και παρέλαβα το προϊόν.Εαν ήθελα μου δίνει και την δυνατότητα δόσεων.\",\"rating\":5,\"shop_reply\":null,\"created_at\":\"2015-12-18T00:11:32+02:00\"}],\"meta\":{\"pagination\":{\"total_results\":365,\"total_pages\":15,\"page\":1,\"per\":25}}}",
      "headers": {
        "Content-Type": "application/json; charset=utf-8",
        "Vary": "Accept-Encoding",
        "X-RateLimit-Limit": "100",
        "X-RateLimit-Remaining": "97",
        "X-RateLimit-Reset": "1455997080",
        "Status": "200 OK",
        "X-Frame-Options": "SAMEORIGIN",
        "X-XSS-Protection": "1; mode=block",
        "X-Content-Type-Options": "nosniff",
        "Link": "<https://api.skroutz.gr/shops/452/reviews?page=15>; rel=\"last\", <https://api.skroutz.gr/shops/452/reviews?page=2>; rel=\"next\"",
        "Cache-Control": "max-age=300, private",
        "ETag": "W/\"a44f552b78c858c60bad7dede07e006c\"",
        "X-Request-Id": "331234106",
        "X-DNS-Prefetch-Control": "off",
        "Access-Control-Allow-Origin": "*",
        "Access-Control-Allow-Methods": "HEAD, GET, POST, PUT, DELETE",
        "Content-Length": "27851",
        "Accept-Ranges": "bytes",
        "Date": "Sat, 20 Feb 2016 19:37:12 GMT",
        "Age": "0",
        "X-Cache": "MISS"
      },
      "status_code": 200,
      "type": "ok"
    }
  }
]