[
  {
    "request": {
      "body": "",
      "headers": {
        "Accept": "application/vnd.skroutz+json; version=3",
        "Authorization": "Bearer ACCESS_TOKEN"
      },
      "method": "get",
      "options": [],
      "request_body": "",
      "url": "https://api.skroutz.gr/search?q=iphone+6"
    },
    "response": {
      "body": "{\"categories\":[{\"id\":40,\"name\":\"Κινητά Τηλέφωνα\",\"children_count\":0,\"image_url\":\"http://a.scdn.gr/images/categories/large/20150508124644_bd07441b.jpg\",\"parent_id\":86,\"fashion\":false,\"layout_mode\":\"list\",\"web_uri\":\"https://skroutz.gr/c/40/kinhta-thlefwna.html\",\"path\":\"76,1269,86,40\",\"show_specifications\":true,\"manufacturer_title\":\"Κατασκευαστές\",\"match_count\":12},{\"id\":579,\"name\":\"Θήκες Κινητών Τηλεφώνων\",\"children_count\":0,\"image_url\":\"http://c.scdn.gr/images/categories/large/20150408173958_42b293c7.jpg\",\"parent_id\":86,\"fashion\":false,\"layout_mode\":\"tiles\",\"web_uri\":\"https://skroutz.gr/c/579/thikes-kinhtwn-thlefwnwn.html\",\"path\":\"76,1269,86,579\",\"show_specifications\":false,\"manufacturer_title\":\"Κατασκευαστές\",\"match_count\":8386},{\"id\":612,\"name\":\"Προστασία Οθόνης Κινητών\",\"children_count\":0,\"image_url\":\"http://d.scdn.gr/images/categories/large/20150511192956_5d355f2a.jpg\",\"parent_id\":86,\"fashion\":false,\"layout_mode\":\"list\",\"web_uri\":\"https://skroutz.gr/c/612/prostasia-othonis-kinitwn.html\",\"path\":\"76,1269,86,612\",\"show_specifications\":false,\"manufacturer_title\":\"Κατασκευαστές\",\"match_count\":990},{\"id\":585,\"name\":\"Καλώδια δεδομένων\",\"children_count\":0,\"image_url\":\"http://a.scdn.gr/images/categories/large/585.jpg\",\"parent_id\":86,\"fashion\":false,\"layout_mode\":\"list\",\"web_uri\":\"https://skroutz.gr/c/585/kalodia-dedomenwn.html\",\"path\":\"76,1269,86,585\",\"show_specifications\":false,\"manufacturer_title\":\"Κατασκευαστές\",\"match_count\":309},{\"id\":1747,\"name\":\"Θήκες Bumper\",\"children_count\":0,\"image_url\":\"http://c.scdn.gr/images/categories/large/20150820132916_d4d256b5.jpg\",\"parent_id\":86,\"fashion\":false,\"layout_mode\":\"list\",\"web_uri\":\"https://skroutz.gr/c/1747/thikes_bumper.html\",\"path\":\"76,1269,86,1747\",\"show_specifications\":false,\"manufacturer_title\":\"Κατασκευαστές\",\"match_count\":658},{\"id\":584,\"name\":\"Handsfree Ακουστικά\",\"children_count\":0,\"image_url\":\"http://a.scdn.gr/images/categories/large/20150609113227_2f901046.jpg\",\"parent_id\":86,\"fashion\":false,\"layout_mode\":\"tiles\",\"web_uri\":\"https://skroutz.gr/c/584/hands-free.html\",\"path\":\"76,1269,86,584\",\"show_specifications\":false,\"manufacturer_title\":\"Κατασκευαστές\",\"match_count\":23},{\"id\":583,\"name\":\"Ανταλλακτικά Κινητών Τηλεφώνων\",\"children_count\":0,\"image_url\":\"http://a.scdn.gr/images/categories/large/583.jpg\",\"parent_id\":86,\"fashion\":false,\"layout_mode\":\"list\",\"web_uri\":\"https://skroutz.gr/c/583/antallaktika-kinhtwn-tilefwnwn.html\",\"path\":\"76,1269,86,583\",\"show_specifications\":false,\"manufacturer_title\":\"Κατασκευαστές\",\"match_count\":1089},{\"id\":312,\"name\":\"Ηχοσυστήματα Αυτοκινήτου\",\"children_count\":0,\"image_url\":\"http://c.scdn.gr/images/categories/large/312.jpg\",\"parent_id\":311,\"fashion\":false,\"layout_mode\":\"list\",\"web_uri\":\"https://skroutz.gr/c/312/radiocd-kasetofona.html\",\"path\":\"76,33,311,312\",\"show_specifications\":true,\"manufacturer_title\":\"Κατασκευαστές\",\"match_count\":4},{\"id\":581,\"name\":\"Φορτιστές Κινητών Τηλεφώνων\",\"children_count\":0,\"image_url\":\"http://a.scdn.gr/images/categories/large/581.jpg\",\"parent_id\":86,\"fashion\":false,\"layout_mode\":\"list\",\"web_uri\":\"https://skroutz.gr/c/581/fortistes-kinhtwn-tilefwnwn.html\",\"path\":\"76,1269,86,581\",\"show_specifications\":false,\"manufacturer_title\":\"Κατασκευαστές\",\"match_count\":39},{\"id\":587,\"name\":\"Διάφορα Αξεσουάρ Κινητών\",\"children_count\":0,\"image_url\":\"http://a.scdn.gr/images/categories/large/20150609112930_2d404199.jpg\",\"parent_id\":86,\"fashion\":false,\"layout_mode\":\"list\",\"web_uri\":\"https://skroutz.gr/c/587/diafora-aksesouar-kinhton.html\",\"path\":\"76,1269,86,587\",\"show_specifications\":false,\"manufacturer_title\":\"Κατασκευαστές\",\"match_count\":94},{\"id\":1518,\"name\":\"Universal Θήκες Κινητών Τηλεφώνων\",\"children_count\":0,\"image_url\":\"http://c.scdn.gr/images/categories/large/20150408161931_e7f98f82.jpg\",\"parent_id\":86,\"fashion\":false,\"layout_mode\":\"tiles\",\"web_uri\":\"https://skroutz.gr/c/1518/universal-thikes-kinhtwn-thlefwnwn.html\",\"path\":\"76,1269,86,1518\",\"show_specifications\":false,\"manufacturer_title\":\"Κατασκευαστές\",\"match_count\":339},{\"id\":112,\"name\":\"Ηχεία Multimedia\",\"children_count\":0,\"image_url\":\"http://a.scdn.gr/images/categories/large/20150314011548_04c83d65.jpg\",\"parent_id\":110,\"fashion\":false,\"layout_mode\":\"tiles\",\"web_uri\":\"https://skroutz.gr/c/112/multimedia-speakers.html\",\"path\":\"76,1269,22,39,110,112\",\"show_specifications\":true,\"manufacturer_title\":\"Κατασκευαστές\",\"match_count\":21},{\"id\":1849,\"name\":\"Βάσεις Κινητών/Τάμπλετ Αυτοκινήτου\",\"children_count\":0,\"image_url\":\"http://c.scdn.gr/images/categories/large/20150212161202_5d157d22.jpg\",\"parent_id\":1848,\"fashion\":false,\"layout_mode\":\"tiles\",\"web_uri\":\"https://skroutz.gr/c/1849/Vaseis-Kiniton-Tamplet-Aytokinitou.html\",\"path\":\"76,33,1223,1848,1849\",\"show_specifications\":false,\"manufacturer_title\":\"Κατασκευαστές\",\"match_count\":16},{\"id\":435,\"name\":\"Bluetooth Handsfree\",\"children_count\":0,\"image_url\":\"http://d.scdn.gr/images/categories/large/435.jpg\",\"parent_id\":86,\"fashion\":false,\"layout_mode\":\"tiles\",\"web_uri\":\"https://skroutz.gr/c/435/hands-free-bluetooth.html\",\"path\":\"76,1269,86,435\",\"show_specifications\":true,\"manufacturer_title\":\"Κατασκευαστές\",\"match_count\":1},{\"id\":699,\"name\":\"Μετατροπείς\",\"children_count\":0,\"image_url\":\"http://a.scdn.gr/images/categories/large/20150527003300_13ef2e6b.jpg\",\"parent_id\":144,\"fashion\":false,\"layout_mode\":\"tiles\",\"web_uri\":\"https://skroutz.gr/c/699/metatropeis-adaptors.html\",\"path\":\"76,1269,144,699\",\"show_specifications\":true,\"manufacturer_title\":\"Κατασκευαστές\",\"match_count\":7},{\"id\":1417,\"name\":\"Φορτιστές Αναπτήρα Αυτοκινήτου\",\"children_count\":0,\"image_url\":\"http://b.scdn.gr/images/categories/large/20150212161854_367c8f29.jpg\",\"parent_id\":1848,\"fashion\":false,\"layout_mode\":\"tiles\",\"web_uri\":\"https://skroutz.gr/c/1417/Car_Charger.html\",\"path\":\"76,33,1223,1848,1417\",\"show_specifications\":false,\"manufacturer_title\":\"Κατασκευαστές\",\"match_count\":28},{\"id\":61,\"name\":\"USB Flash\",\"children_count\":0,\"image_url\":\"http://d.scdn.gr/images/categories/large/61.jpg\",\"parent_id\":47,\"fashion\":false,\"layout_mode\":\"list\",\"web_uri\":\"https://skroutz.gr/c/61/usb-flash.html\",\"path\":\"76,1269,22,47,61\",\"show_specifications\":true,\"manufacturer_title\":\"Κατασκευαστές\",\"match_count\":4},{\"id\":1748,\"name\":\"Power Banks\",\"children_count\":0,\"image_url\":\"http://c.scdn.gr/images/categories/large/20150204175129_1748.jpg\",\"parent_id\":86,\"fashion\":false,\"layout_mode\":\"list\",\"web_uri\":\"https://skroutz.gr/c/1748/power_banks.html\",\"path\":\"76,1269,86,1748\",\"show_specifications\":true,\"manufacturer_title\":\"Κατασκευαστές\",\"match_count\":2},{\"id\":786,\"name\":\"Λάμπες\",\"children_count\":0,\"image_url\":\"http://b.scdn.gr/images/categories/large/786.jpg\",\"parent_id\":905,\"fashion\":false,\"layout_mode\":\"tiles\",\"web_uri\":\"https://skroutz.gr/c/786/lamptires.html\",\"path\":\"76,11,1273,905,786\",\"show_specifications\":false,\"manufacturer_title\":\"Κατασκευαστές\",\"match_count\":1},{\"id\":582,\"name\":\"Μπαταρίες Κινητών Τηλεφώνων\",\"children_count\":0,\"image_url\":\"http://a.scdn.gr/images/categories/large/582.jpg\",\"parent_id\":86,\"fashion\":false,\"layout_mode\":\"list\",\"web_uri\":\"https://skroutz.gr/c/582/mpataries-kinhtwn-tilefwnwn.html\",\"path\":\"76,1269,86,582\",\"show_specifications\":false,\"manufacturer_title\":\"Κατασκευαστές\",\"match_count\":2},{\"id\":426,\"name\":\"Φωτοβολταϊκά \\u0026 Ανεμογεννήτριες\",\"children_count\":0,\"image_url\":\"http://c.scdn.gr/images/categories/large/426.jpg\",\"parent_id\":425,\"fashion\":false,\"layout_mode\":\"list\",\"web_uri\":\"https://skroutz.gr/c/426/fotovoltaika.html\",\"path\":\"76,1269,144,425,426\",\"show_specifications\":false,\"manufacturer_title\":\"Κατασκευαστές\",\"match_count\":5},{\"id\":1610,\"name\":\"Φορτιστές Tablet\",\"children_count\":0,\"image_url\":\"http://d.scdn.gr/images/categories/large/1610.jpg\",\"parent_id\":1612,\"fashion\":false,\"layout_mode\":\"list\",\"web_uri\":\"https://skroutz.gr/c/1610/fortistes-tablet.html\",\"path\":\"76,1269,1612,1610\",\"show_specifications\":false,\"manufacturer_title\":\"Κατασκευαστές\",\"match_count\":2},{\"id\":1309,\"name\":\"Θήκες \\u0026 Βάσεις Ποδηλάτου\",\"children_count\":0,\"image_url\":\"http://a.scdn.gr/images/categories/large/1309.jpg\",\"parent_id\":375,\"fashion\":false,\"layout_mode\":\"list\",\"web_uri\":\"https://skroutz.gr/c/1309/bike_cases.html\",\"path\":\"76,255,375,1309\",\"show_specifications\":false,\"manufacturer_title\":\"Κατασκευαστές\",\"match_count\":11},{\"id\":1755,\"name\":\"Βάσεις GPS \\u0026 Κινητών Moto\",\"children_count\":0,\"image_url\":\"http://b.scdn.gr/images/categories/large/1755.jpg\",\"parent_id\":577,\"fashion\":false,\"layout_mode\":\"tiles\",\"web_uri\":\"https://skroutz.gr/c/1755/Baseis_GPS_moto.html\",\"path\":\"76,33,382,577,1755\",\"show_specifications\":false,\"manufacturer_title\":\"Κατασκευαστές\",\"match_count\":18},{\"id\":1971,\"name\":\"Καλώδια 3.5mm Jack\",\"children_count\":0,\"image_url\":\"http://b.scdn.gr/images/categories/large/20150531203022_621a35a3.jpg\",\"parent_id\":700,\"fashion\":false,\"layout_mode\":\"list\",\"web_uri\":\"https://skroutz.gr/c/1971/kalodio_3_5mm_jack.html\",\"path\":\"76,1269,144,29,700,1971\",\"show_specifications\":true,\"manufacturer_title\":\"Κατασκευαστές\",\"match_count\":1}],\"meta\":{\"q\":\"iphone 6\",\"alternatives\":[],\"strong_matches\":{},\"pagination\":{\"total_results\":42,\"total_pages\":2,\"page\":1,\"per\":25}}}",
      "headers": {
        "Content-Type": "application/json; charset=utf-8",
        "Vary": "Accept-Encoding",
        "X-RateLimit-Limit": "100",
        "X-RateLimit-Remaining": "99",
        "X-RateLimit-Reset": "1456059360",
        "Status": "200 OK",
        "X-Frame-Options": "SAMEORIGIN",
        "X-XSS-Protection": "1; mode=block",
        "X-Content-Type-Options": "nosniff",
        "Link": "<https://api.skroutz.gr/search?page=2&q=iphone+6>; rel=\"last\", <https://api.skroutz.gr/search?page=2&q=iphone+6>; rel=\"next\"",
        "ETag": "W/\"20be1dacc21a9a4bf9520f165f16be0e\"",
        "Cache-Control": "max-age=0, private, must-revalidate",
        "X-Request-Id": "1827610449",
        "X-DNS-Prefetch-Control": "off",
        "Access-Control-Allow-Origin": "*",
        "Access-Control-Allow-Methods": "HEAD, GET, POST, PUT, DELETE",
        "Content-Length": "9802",
        "Accept-Ranges": "bytes",
        "Date": "Sun, 21 Feb 2016 12:55:37 GMT",
        "Age": "0",
        "X-Cache": "MISS"
      },
      "status_code": 200,
      "type": "ok"
    }
  }
]