[
  {
    "request": {
      "body": "",
      "headers": {
        "Accept": "application/vnd.skroutz+json; version=3",
        "Authorization": "Bearer ACCESS_TOKEN"
      },
      "method": "get",
      "options": [],
      "request_body": "",
      "url": "https://api.skroutz.gr/skus/7423345/products?"
    },
    "response": {
      "body": "{\"products\":[{\"id\":21076702,\"name\":\"Apple iPhone 6s (16GB) Space Grey EU\",\"sku_id\":7423345,\"shop_id\":2281,\"category_id\":40,\"availability\":\"Άμεση παραλαβή / Παράδοση 1 έως 3 ημέρες\",\"click_url\":\"https://www.skroutz.gr/products/show/21076702?client_id=RO6HMDnulVMcaQwxts3xw%3D%3D\\u0026from=api\",\"shop_uid\":\"CT10912\",\"expenses\":null,\"web_uri\":\"https://skroutz.gr/products/show/21076702\",\"price\":603.89},{\"id\":21076703,\"name\":\"Apple iPhone 6s (16GB) Pink EU\",\"sku_id\":7423345,\"shop_id\":2281,\"category_id\":40,\"availability\":\"Άμεση παραλαβή / Παράδοση 1 έως 3 ημέρες\",\"click_url\":\"https://www.skroutz.gr/products/show/21076703?client_id=RO6HMDnulVMcaQwxts3xw%3D%3D\\u0026from=api\",\"shop_uid\":\"CT10917\",\"expenses\":null,\"web_uri\":\"https://skroutz.gr/products/show/21076703\",\"price\":603.89},{\"id\":21076704,\"name\":\"Apple iPhone 6s (16GB) Gold EU\",\"sku_id\":7423345,\"shop_id\":2281,\"category_id\":40,\"availability\":\"Άμεση παραλαβή / Παράδοση 1 έως 3 ημέρες\",\"click_url\":\"https://www.skroutz.gr/products/show/21076704?client_id=RO6HMDnulVMcaQwxts3xw%3D%3D\\u0026from=api\",\"shop_uid\":\"CT10918\",\"expenses\":null,\"web_uri\":\"https://skroutz.gr/products/show/21076704\",\"price\":603.89},{\"id\":21147721,\"name\":\"Apple iPhone 6s (16GB) Silver EU\",\"sku_id\":7423345,\"shop_id\":2281,\"category_id\":40,\"availability\":\"Άμεση παραλαβή / Παράδοση 1 έως 3 ημέρες\",\"click_url\":\"https://www.skroutz.gr/products/show/21147721?client_id=RO6HMDnulVMcaQwxts3xw%3D%3D\\u0026from=api\",\"shop_uid\":\"CT10931\",\"expenses\":null,\"web_uri\":\"https://skroutz.gr/products/show/21147721\",\"price\":603.89},{\"id\":21654283,\"name\":\"Apple iPhone 6s 16GB Space Gray EU\",\"sku_id\":7423345,\"shop_id\":3013,\"category_id\":40,\"availability\":\"Άμεση παραλαβή / Παράδοση 1 έως 3 ημέρες\",\"click_url\":\"https://www.skroutz.gr/products/show/21654283?client_id=RO6HMDnulVMcaQwxts3xw%3D%3D\\u0026from=api\",\"shop_uid\":\"780\",\"expenses\":null,\"web_uri\":\"https://skroutz.gr/products/show/21654283\",\"price\":604.0},{\"id\":21076599,\"name\":\"APPLE IPHONE 6s (16GB) space grey EU\",\"sku_id\":7423345,\"shop_id\":1967,\"category_id\":40,\"availability\":\"Άμεση παραλαβή / Παράδοση 1 έως 3 ημέρες\",\"click_url\":\"https://www.skroutz.gr/products/show/21076599?client_id=RO6HMDnulVMcaQwxts3xw%3D%3D\\u0026from=api\",\"shop_uid\":\"2747\",\"expenses\":null,\"web_uri\":\"https://skroutz.gr/products/show/21076599\",\"price\":604.0},{\"id\":21076600,\"name\":\"APPLE IPHONE 6s (16GB) GOLD EU\",\"sku_id\":7423345,\"shop_id\":1967,\"category_id\":40,\"availability\":\"Άμεση παραλαβή / Παράδοση 1 έως 3 ημέρες\",\"click_url\":\"https://www.skroutz.gr/products/show/21076600?client_id=RO6HMDnulVMcaQwxts3xw%3D%3D\\u0026from=api\",\"shop_uid\":\"2748\",\"expenses\":null,\"web_uri\":\"https://skroutz.gr/products/show/21076600\",\"price\":604.0},{\"id\":21222815,\"name\":\"APPLE IPHONE 6s (16GB) SILVER EU\",\"sku_id\":7423345,\"shop_id\":1967,\"category_id\":40,\"availability\":\"Άμεση παραλαβή / Παράδοση 1 έως 3 ημέρες\",\"click_url\":\"https://www.skroutz.gr/products/show/21222815?client_id=RO6HMDnulVMcaQwxts3xw%3D%3D\\u0026from=api\",\"shop_uid\":\"2755\",\"expenses\":null,\"web_uri\":\"https://skroutz.gr/products/show/21222815\",\"price\":604.0},{\"id\":21928750,\"name\":\"Apple IPhone 6s (16GB) Gold EU\",\"sku_id\":7423345,\"shop_id\":3304,\"category_id\":40,\"availability\":\"Άμεση παραλαβή / Παράδοση 1 έως 3 ημέρες\",\"click_url\":\"https://www.skroutz.gr/products/show/21928750?client_id=RO6HMDnulVMcaQwxts3xw%3D%3D\\u0026from=api\",\"shop_uid\":\"1074\",\"expenses\":null,\"web_uri\":\"https://skroutz.gr/products/show/21928750\",\"price\":604.3},{\"id\":22154502,\"name\":\"Apple IPhone 6s (16GB) Silver-White EU\",\"sku_id\":7423345,\"shop_id\":3304,\"category_id\":40,\"availability\":\"Άμεση παραλαβή / Παράδοση 1 έως 3 ημέρες\",\"click_url\":\"https://www.skroutz.gr/products/show/22154502?client_id=RO6HMDnulVMcaQwxts3xw%3D%3D\\u0026from=api\",\"shop_uid\":\"1073\",\"expenses\":null,\"web_uri\":\"https://skroutz.gr/products/show/22154502\",\"price\":604.3},{\"id\":22154503,\"name\":\"Apple IPhone 6s (16GB) Rose Gold EU\",\"sku_id\":7423345,\"shop_id\":3304,\"category_id\":40,\"availability\":\"Άμεση παραλαβή / Παράδοση 1 έως 3 ημέρες\",\"click_url\":\"https://www.skroutz.gr/products/show/22154503?client_id=RO6HMDnulVMcaQwxts3xw%3D%3D\\u0026from=api\",\"shop_uid\":\"1076\",\"expenses\":null,\"web_uri\":\"https://skroutz.gr/products/show/22154503\",\"price\":604.3},{\"id\":21289305,\"name\":\"Apple iPhone 6S 16GB (Γκρι) EU\",\"sku_id\":7423345,\"shop_id\":1712,\"category_id\":40,\"availability\":\"Άμεση παραλαβή / Παράδοση 1 έως 3 ημέρες\",\"click_url\":\"https://www.skroutz.gr/products/show/21289305?client_id=RO6HMDnulVMcaQwxts3xw%3D%3D\\u0026from=api\",\"shop_uid\":\"296150\",\"expenses\":null,\"web_uri\":\"https://skroutz.gr/products/show/21289305\",\"price\":604.45},{\"id\":21079619,\"name\":\"Apple iPhone 6s Space Gray (16GB) EU\",\"sku_id\":7423345,\"shop_id\":2579,\"category_id\":40,\"availability\":\"Άμεση παραλαβή / Παράδοση 1 έως 3 ημέρες\",\"click_url\":\"https://www.skroutz.gr/products/show/21079619?client_id=RO6HMDnulVMcaQwxts3xw%3D%3D\\u0026from=api\",\"shop_uid\":\"923\",\"expenses\":null,\"web_uri\":\"https://skroutz.gr/products/show/21079619\",\"price\":604.5},{\"id\":21079621,\"name\":\"Apple iPhone 6s Silver (16GB) EU\",\"sku_id\":7423345,\"shop_id\":2579,\"category_id\":40,\"availability\":\"Άμεση παραλαβή / Παράδοση 1 έως 3 ημέρες\",\"click_url\":\"https://www.skroutz.gr/products/show/21079621?client_id=RO6HMDnulVMcaQwxts3xw%3D%3D\\u0026from=api\",\"shop_uid\":\"926\",\"expenses\":null,\"web_uri\":\"https://skroutz.gr/products/show/21079621\",\"price\":604.5},{\"id\":22215284,\"name\":\"Apple iPhone 6s 16GB Gold EU\",\"sku_id\":7423345,\"shop_id\":2475,\"category_id\":40,\"availability\":\"Κατόπιν παραγγελίας\",\"click_url\":\"https://www.skroutz.gr/products/show/22215284?client_id=RO6HMDnulVMcaQwxts3xw%3D%3D\\u0026from=api\",\"shop_uid\":\"2466\",\"expenses\":null,\"web_uri\":\"https://skroutz.gr/products/show/22215284\",\"price\":605.0},{\"id\":21759254,\"name\":\"Apple iPhone 6s Space Gray (16GB) EU\",\"sku_id\":7423345,\"shop_id\":3245,\"category_id\":40,\"availability\":\"Άμεση παραλαβή / Παράδοση 1 έως 3 ημέρες\",\"click_url\":\"https://www.skroutz.gr/products/show/21759254?client_id=RO6HMDnulVMcaQwxts3xw%3D%3D\\u0026from=api\",\"shop_uid\":\"459\",\"expenses\":null,\"web_uri\":\"https://skroutz.gr/products/show/21759254\",\"price\":605.0},{\"id\":22372153,\"name\":\"Apple iPhone 6s 16GB GOLD\",\"sku_id\":7423345,\"shop_id\":1628,\"category_id\":40,\"availability\":\"Άμεση παραλαβή / Παράδοση 1 έως 3 ημέρες\",\"click_url\":\"https://www.skroutz.gr/products/show/22372153?client_id=RO6HMDnulVMcaQwxts3xw%3D%3D\\u0026from=api\",\"shop_uid\":\"672\",\"expenses\":null,\"web_uri\":\"https://skroutz.gr/products/show/22372153\",\"price\":605.5},{\"id\":21060689,\"name\":\"Apple iPhone 6s 16GB SILVER\",\"sku_id\":7423345,\"shop_id\":1628,\"category_id\":40,\"availability\":\"Παράδοση 1 έως 3 ημέρες\",\"click_url\":\"https://www.skroutz.gr/products/show/21060689?client_id=RO6HMDnulVMcaQwxts3xw%3D%3D\\u0026from=api\",\"shop_uid\":\"599\",\"expenses\":null,\"web_uri\":\"https://skroutz.gr/products/show/21060689\",\"price\":605.5},{\"id\":22372151,\"name\":\"Apple iPhone 6s 16GB ROSE-GOLD\",\"sku_id\":7423345,\"shop_id\":1628,\"category_id\":40,\"availability\":\"Παράδοση 1 έως 3 ημέρες\",\"click_url\":\"https://www.skroutz.gr/products/show/22372151?client_id=RO6HMDnulVMcaQwxts3xw%3D%3D\\u0026from=api\",\"shop_uid\":\"670\",\"expenses\":null,\"web_uri\":\"https://skroutz.gr/products/show/22372151\",\"price\":605.5},{\"id\":22372152,\"name\":\"Apple iPhone 6s 16GB SPACE GRAY\",\"sku_id\":7423345,\"shop_id\":1628,\"category_id\":40,\"availability\":\"Παράδοση 1 έως 3 ημέρες\",\"click_url\":\"https://www.skroutz.gr/products/show/22372152?client_id=RO6HMDnulVMcaQwxts3xw%3D%3D\\u0026from=api\",\"shop_uid\":\"671\",\"expenses\":null,\"web_uri\":\"https://skroutz.gr/products/show/22372152\",\"price\":605.5},{\"id\":21846026,\"name\":\"Apple iPhone 6s (16GB) Space Gray EU\",\"sku_id\":7423345,\"shop_id\":3003,\"category_id\":40,\"availability\":\"Άμεση παραλαβή / Παράδοση 1 έως 3 ημέρες\",\"click_url\":\"https://www.skroutz.gr/products/show/21846026?client_id=RO6HMDnulVMcaQwxts3xw%3D%3D\\u0026from=api\",\"shop_uid\":\"1156\",\"expenses\":null,\"web_uri\":\"https://skroutz.gr/products/show/21846026\",\"price\":606.26},{\"id\":22817569,\"name\":\"Apple IPhone 6s (16GB) Gold EU\",\"sku_id\":7423345,\"shop_id\":3028,\"category_id\":40,\"availability\":\"Άμεση παραλαβή / Παράδοση 1 έως 3 ημέρες\",\"click_url\":\"https://www.skroutz.gr/products/show/22817569?client_id=RO6HMDnulVMcaQwxts3xw%3D%3D\\u0026from=api\",\"shop_uid\":\"1074\",\"expenses\":null,\"web_uri\":\"https://skroutz.gr/products/show/22817569\",\"price\":607.0},{\"id\":22817571,\"name\":\"Apple IPhone 6s (16GB) Rose Gold EU\",\"sku_id\":7423345,\"shop_id\":3028,\"category_id\":40,\"availability\":\"Άμεση παραλαβή / Παράδοση 1 έως 3 ημέρες\",\"click_url\":\"https://www.skroutz.gr/products/show/22817571?client_id=RO6HMDnulVMcaQwxts3xw%3D%3D\\u0026from=api\",\"shop_uid\":\"1076\",\"expenses\":null,\"web_uri\":\"https://skroutz.gr/products/show/22817571\",\"price\":607.0},{\"id\":23063826,\"name\":\"Apple IPhone 6s (16GB) Space Gray EU\",\"sku_id\":7423345,\"shop_id\":3028,\"category_id\":40,\"availability\":\"Άμεση παραλαβή / Παράδοση 1 έως 3 ημέρες\",\"click_url\":\"https://www.skroutz.gr/products/show/23063826?client_id=RO6HMDnulVMcaQwxts3xw%3D%3D\\u0026from=api\",\"shop_uid\":\"1075\",\"expenses\":null,\"web_uri\":\"https://skroutz.gr/products/show/23063826\",\"price\":607.0},{\"id\":22636741,\"name\":\"Apple iPhone 6s 16GB grey  EU\",\"sku_id\":7423345,\"shop_id\":3427,\"category_id\":40,\"availability\":\"Άμεση παραλαβή / Παράδοση 1 έως 3 ημέρες\",\"click_url\":\"https://www.skroutz.gr/products/show/22636741?client_id=RO6HMDnulVMcaQwxts3xw%3D%3D\\u0026from=api\",\"shop_uid\":\"91\",\"expenses\":null,\"web_uri\":\"https://skroutz.gr/products/show/22636741\",\"price\":607.0}],\"meta\":{\"pagination\":{\"total_results\":194,\"total_pages\":8,\"page\":1,\"per\":25}}}",
      "headers": {
        "Server": "nginx",
        "Content-Type": "application/json; charset=utf-8",
        "Vary": "Accept-Encoding",
        "X-RateLimit-Limit": "100",
        "X-RateLimit-Remaining": "98",
        "X-RateLimit-Reset": "1455836460",
        "Status": "200 OK",
        "X-Frame-Options": "SAMEORIGIN",
        "X-XSS-Protection": "1; mode=block",
        "X-Content-Type-Options": "nosniff",
        "Link": "<https://api.skroutz.gr/skus/7423345/products?page=8>; rel=\"last\", <https://api.skroutz.gr/skus/7423345/products?page=2>; rel=\"next\"",
        "Cache-Control": "max-age=300, private",
        "ETag": "W/\"2c4eed21ff266331d76c30b780f268c5\"",
        "X-Request-Id": "1800265170",
        "X-Runtime": "0.045250",
        "X-DNS-Prefetch-Control": "off",
        "Access-Control-Allow-Origin": "*",
        "Access-Control-Allow-Methods": "HEAD, GET, POST, PUT, DELETE",
        "X-App": "kavula_ssl",
        "Content-Length": "10212",
        "Accept-Ranges": "bytes",
        "Date": "Thu, 18 Feb 2016 23:00:45 GMT",
        "X-Varnish": "1800265170",
        "Age": "0",
        "Via": "1.1 varnish",
        "X-Origin": "lb2",
        "X-Cache": "MISS"
      },
      "status_code": 200,
      "type": "ok"
    }
  }
]